{
    "jet_collection": "AntiKt4EMPFlowJets",
    "calibration": {
        "file": "fragments/pflow-calibration.json"
    },
    "selection": {
        "file": "fragments/pflow-selection.json"
    },
    "vertex_collection": "",
    "variables": {

        "jet" : {
            "ints" : [
                "HadronConeExclTruthLabelID",
                "HadronConeExclExtendedTruthLabelID",
                "PartonTruthLabelID",
                "jetPtRank"
            ],
            "floats": [
                "pt",
                "mass",
                "energy",
                "deltaPtToTauJet"
            ],
            "halves": [
                "eta",
                "phi",
                "RNNJetScoreSigTransFromTauJet",
                "GNTauScoreFromTauJet",
                "deltaRToTauJet"
            ]
        },
        "btagging" : {
            "halves": [
                "GN2v01_pb",
                "GN2v01_pc",
                "GN2v01_pu",
                "GN2v01_ptau"
            ]
        },
        "default_mapping": {
            "file": "fragments/default-mapping.json"
        }
    },
    "truths" : [
        {
            "file": "fragments/overlap-leptons-TRUTH3.json"
        }
    ],
    "tracks": [],
    "btagging_link": "btaggingLink",
    "ca_blocks": [
        {"block": "BTagJetLinker"},
        {
            "block": "JetMatcher",
            "source_jets" : ["TauJets"],
            "source_name" : "TauJet",
            "floats_to_copy" : [
                "RNNJetScoreSigTrans",
                "GNTauScore"
            ],
            "pt_priority_with_delta_r": 0.3
        }
    ]
}
